%YAML 1.1
%TAG !u! tag:unity3d.com,2011:
--- !u!162 &1
EditorUserSettings:
  m_ObjectHideFlags: 0
  serializedVersion: 4
  m_ConfigSettings:
    RecentlyUsedSceneGuid-0:
      value: 0157505e51505d0f085a0d7a44770d43154e4c732d7175672b2a1930b0b3603e
      flags: 0
    RecentlyUsedSceneGuid-1:
      value: 0053550055570a085b0a587a45770d46104e4029797e7334297a456bb7b36c6e
      flags: 0
    RecentlyUsedSceneGuid-2:
      value: 5004065f5c545f5a5457087414255a4414154f7a757d74672f284466e3e13668
      flags: 0
    RecentlyUsedSceneGuid-3:
      value: 570452005d040c0e095c5c204977091415161c7e7f7823637d714431b5b0376b
      flags: 0
    RecentlyUsedSceneGuid-4:
      value: 0609005f50065d09595f092416775d16414f1d787d2c71662f791930b1e4676a
      flags: 0
    RecentlyUsedSceneGuid-5:
      value: 5750065551045a0c085d0e2145775911454f417f7b2974312f714532b3b7616a
      flags: 0
    RecentlyUsedSceneGuid-6:
      value: 0704005256015b0f5f595f2612775947414f19787f7175642e284532b5b2663b
      flags: 0
    RecentlyUsedSceneGuid-7:
      value: 5a010305560351035c5e5c7543770649174f4f2b2d787e34757b4a66b4e5646a
      flags: 0
    vcSharedLogLevel:
      value: 0d5e400f0650
      flags: 0
  m_VCAutomaticAdd: 1
  m_VCDebugCom: 0
  m_VCDebugCmd: 0
  m_VCDebugOut: 0
  m_SemanticMergeMode: 2
  m_DesiredImportWorkerCount: 2
  m_StandbyImportWorkerCount: 2
  m_IdleImportWorkerShutdownDelay: 60000
  m_VCShowFailedCheckout: 1
  m_VCOverwriteFailedCheckoutAssets: 1
  m_VCProjectOverlayIcons: 1
  m_VCHierarchyOverlayIcons: 1
  m_VCOtherOverlayIcons: 1
  m_VCAllowAsyncUpdate: 0
  m_ArtifactGarbageCollection: 1
